…
``` r
sum(is.na(location3$longitude))  # total number of NAs in longitude
sum(is.na(location3$latitude))  # total number of NAs in latitude
```

    ## [1] 25
    ## [1] 25

``` r
# show only records where longitude is NA
location3 %>% filter(is.na(longitude))
```

    ## # A tibble: 25 × 13
    ##    source   diver_id activity month  year country site  longitude latitude mpa  
    ##    <chr>       <dbl> <chr>    <chr> <dbl> <chr>   <chr>     <dbl>    <dbl> <chr>
    ##  1 renfro_…     2274 scuba    may    2023 usa     flor…        NA       NA yes  
    ##  2 renfro_…     2275 scuba    may    2023 usa     flor…        NA       NA yes  
    ##  3 renfro_…     2276 scuba    may    2023 usa     flor…        NA       NA yes  
    ##  4 renfro_…     2277 scuba    may    2023 usa     flor…        NA       NA yes  
    ##  5 renfro_…     2278 scuba    may    2023 usa     flor…        NA       NA yes  
    ##  6 renfro_…     2279 scuba    may    2023 usa     flor…        NA       NA yes  
    ##  7 renfro_…     2280 scuba    may    2023 usa     flor…        NA       NA yes  
    ##  8 renfro_…     2281 scuba    may    2023 usa     flor…        NA       NA yes  
    ##  9 renfro_…     2282 scuba    may    2023 usa     flor…        NA       NA yes  
    ## 10 renfro_…     2283 scuba    may    2023 usa     flor…        NA       NA yes  
    ## # ℹ 15 more rows
    ## # ℹ 3 more variables: dive_site <chr>, reef_type <chr>, visibility_m <chr>

``` r
# show only records for specific diver_id
location2 %>% filter(diver_id %in% 2274:2298)
```

    ## # A tibble: 25 × 13
    ##    source   diver_id activity month  year country site  longitude latitude mpa  
    ##    <chr>       <dbl> <chr>    <chr> <dbl> <chr>   <chr> <chr>     <chr>    <chr>
    ##  1 renfro_…     2274 scuba    may    2023 usa     flor… 24 57.38N 80 27.3… yes  
    ##  2 renfro_…     2275 scuba    may    2023 usa     flor… 24 57.38N 80 27.3… yes  
    ##  3 renfro_…     2276 scuba    may    2023 usa     flor… 24 57.38N 80 27.3… yes  
    ##  4 renfro_…     2277 scuba    may    2023 usa     flor… 24 57.38N 80 27.3… yes  
    ##  5 renfro_…     2278 scuba    may    2023 usa     flor… 24 57.38N 80 27.3… yes  
    ##  6 renfro_…     2279 scuba    may    2023 usa     flor… 24 57.38N 80 27.3… yes  
    ##  7 renfro_…     2280 scuba    may    2023 usa     flor… 24 57.38N 80 27.3… yes  
    ##  8 renfro_…     2281 scuba    may    2023 usa     flor… 24 57.38N 80 27.3… yes  
    ##  9 renfro_…     2282 scuba    may    2023 usa     flor… 24 59.15N 80 24.5… yes  
    ## 10 renfro_…     2283 scuba    may    2023 usa     flor… 24 59.15N 80 24.5… yes  
    ## # ℹ 15 more rows
    ## # ℹ 3 more variables: dive_site <chr>, reef_type <chr>, visibility_m <chr>
…
